%YAML 1.1
%TAG !u! tag:unity3d.com,2011:
--- !u!1001 &8654208175780943805
PrefabInstance:
  m_ObjectHideFlags: 0
  serializedVersion: 2
  m_Modification:
    m_TransformParent: {fileID: 0}
    m_Modifications:
    - target: {fileID: 1367154697140267222, guid: a8898232fe201664bab3278d45a43c5e, type: 3}
      propertyPath: m_Name
      value: PickableBaseProjectileShotgun
      objectReference: {fileID: 0}
    - target: {fileID: 2458879049069171774, guid: a8898232fe201664bab3278d45a43c5e, type: 3}
      propertyPath: changeProjectile
      value: bouquet
      objectReference: {fileID: 0}
    - target: {fileID: 5032564784755270185, guid: a8898232fe201664bab3278d45a43c5e, type: 3}
      propertyPath: m_Sprite
      value: 
      objectReference: {fileID: 21300000, guid: 7ecaebae8c47c0d4daea8fbb552d0d72, type: 3}
    - target: {fileID: 6646376741835219127, guid: a8898232fe201664bab3278d45a43c5e, type: 3}
      propertyPath: m_RootOrder
      value: 0
      objectReference: {fileID: 0}
    - target: {fileID: 6646376741835219127, guid: a8898232fe201664bab3278d45a43c5e, type: 3}
      propertyPath: m_LocalScale.x
      value: 1
      objectReference: {fileID: 0}
    - target: {fileID: 6646376741835219127, guid: a8898232fe201664bab3278d45a43c5e, type: 3}
      propertyPath: m_LocalScale.y
      value: 1
      objectReference: {fileID: 0}
    - target: {fileID: 6646376741835219127, guid: a8898232fe201664bab3278d45a43c5e, type: 3}
      propertyPath: m_LocalScale.z
      value: 1
      objectReference: {fileID: 0}
    - target: {fileID: 6646376741835219127, guid: a8898232fe201664bab3278d45a43c5e, type: 3}
      propertyPath: m_LocalPosition.x
      value: 0
      objectReference: {fileID: 0}
    - target: {fileID: 6646376741835219127, guid: a8898232fe201664bab3278d45a43c5e, type: 3}
      propertyPath: m_LocalPosition.y
      value: 0
      objectReference: {fileID: 0}
    - target: {fileID: 6646376741835219127, guid: a8898232fe201664bab3278d45a43c5e, type: 3}
      propertyPath: m_LocalPosition.z
      value: 0
      objectReference: {fileID: 0}
    - target: {fileID: 6646376741835219127, guid: a8898232fe201664bab3278d45a43c5e, type: 3}
      propertyPath: m_LocalRotation.w
      value: 1
      objectReference: {fileID: 0}
    - target: {fileID: 6646376741835219127, guid: a8898232fe201664bab3278d45a43c5e, type: 3}
      propertyPath: m_LocalRotation.x
      value: 0
      objectReference: {fileID: 0}
    - target: {fileID: 6646376741835219127, guid: a8898232fe201664bab3278d45a43c5e, type: 3}
      propertyPath: m_LocalRotation.y
      value: 0
      objectReference: {fileID: 0}
    - target: {fileID: 6646376741835219127, guid: a8898232fe201664bab3278d45a43c5e, type: 3}
      propertyPath: m_LocalRotation.z
      value: 0
      objectReference: {fileID: 0}
    - target: {fileID: 6646376741835219127, guid: a8898232fe201664bab3278d45a43c5e, type: 3}
      propertyPath: m_LocalEulerAnglesHint.x
      value: 0
      objectReference: {fileID: 0}
    - target: {fileID: 6646376741835219127, guid: a8898232fe201664bab3278d45a43c5e, type: 3}
      propertyPath: m_LocalEulerAnglesHint.y
      value: 0
      objectReference: {fileID: 0}
    - target: {fileID: 6646376741835219127, guid: a8898232fe201664bab3278d45a43c5e, type: 3}
      propertyPath: m_LocalEulerAnglesHint.z
      value: 0
      objectReference: {fileID: 0}
    - target: {fileID: 7885635012910657839, guid: a8898232fe201664bab3278d45a43c5e, type: 3}
      propertyPath: m_Size.x
      value: 1.5
      objectReference: {fileID: 0}
    - target: {fileID: 7885635012910657839, guid: a8898232fe201664bab3278d45a43c5e, type: 3}
      propertyPath: m_Size.y
      value: 1.5
      objectReference: {fileID: 0}
    - target: {fileID: 7885635012910657839, guid: a8898232fe201664bab3278d45a43c5e, type: 3}
      propertyPath: m_Offset.x
      value: 0
      objectReference: {fileID: 0}
    - target: {fileID: 7885635012910657839, guid: a8898232fe201664bab3278d45a43c5e, type: 3}
      propertyPath: m_Offset.y
      value: 0
      objectReference: {fileID: 0}
    - target: {fileID: 7885635012910657839, guid: a8898232fe201664bab3278d45a43c5e, type: 3}
      propertyPath: m_SpriteTilingProperty.oldSize.x
      value: 1.5
      objectReference: {fileID: 0}
    - target: {fileID: 7885635012910657839, guid: a8898232fe201664bab3278d45a43c5e, type: 3}
      propertyPath: m_SpriteTilingProperty.oldSize.y
      value: 1.5
      objectReference: {fileID: 0}
    m_RemovedComponents:
    - {fileID: 3705842104435905766, guid: a8898232fe201664bab3278d45a43c5e, type: 3}
  m_SourcePrefab: {fileID: 100100000, guid: a8898232fe201664bab3278d45a43c5e, type: 3}
