%YAML 1.1
%TAG !u! tag:unity3d.com,2011:
--- !u!1001 &8247868840094168514
PrefabInstance:
  m_ObjectHideFlags: 0
  serializedVersion: 2
  m_Modification:
    m_TransformParent: {fileID: 0}
    m_Modifications:
    - target: {fileID: 2604558419066484490, guid: a00504f113e0c614e9b41c25c8f858cb, type: 3}
      propertyPath: m_RootOrder
      value: 0
      objectReference: {fileID: 0}
    - target: {fileID: 2604558419066484490, guid: a00504f113e0c614e9b41c25c8f858cb, type: 3}
      propertyPath: m_LocalPosition.x
      value: 0
      objectReference: {fileID: 0}
    - target: {fileID: 2604558419066484490, guid: a00504f113e0c614e9b41c25c8f858cb, type: 3}
      propertyPath: m_LocalPosition.y
      value: 0
      objectReference: {fileID: 0}
    - target: {fileID: 2604558419066484490, guid: a00504f113e0c614e9b41c25c8f858cb, type: 3}
      propertyPath: m_LocalPosition.z
      value: 0
      objectReference: {fileID: 0}
    - target: {fileID: 2604558419066484490, guid: a00504f113e0c614e9b41c25c8f858cb, type: 3}
      propertyPath: m_LocalRotation.w
      value: 1
      objectReference: {fileID: 0}
    - target: {fileID: 2604558419066484490, guid: a00504f113e0c614e9b41c25c8f858cb, type: 3}
      propertyPath: m_LocalRotation.x
      value: 0
      objectReference: {fileID: 0}
    - target: {fileID: 2604558419066484490, guid: a00504f113e0c614e9b41c25c8f858cb, type: 3}
      propertyPath: m_LocalRotation.y
      value: 0
      objectReference: {fileID: 0}
    - target: {fileID: 2604558419066484490, guid: a00504f113e0c614e9b41c25c8f858cb, type: 3}
      propertyPath: m_LocalRotation.z
      value: 0
      objectReference: {fileID: 0}
    - target: {fileID: 2604558419066484490, guid: a00504f113e0c614e9b41c25c8f858cb, type: 3}
      propertyPath: m_LocalEulerAnglesHint.x
      value: 0
      objectReference: {fileID: 0}
    - target: {fileID: 2604558419066484490, guid: a00504f113e0c614e9b41c25c8f858cb, type: 3}
      propertyPath: m_LocalEulerAnglesHint.y
      value: 0
      objectReference: {fileID: 0}
    - target: {fileID: 2604558419066484490, guid: a00504f113e0c614e9b41c25c8f858cb, type: 3}
      propertyPath: m_LocalEulerAnglesHint.z
      value: 0
      objectReference: {fileID: 0}
    - target: {fileID: 7701427560612708203, guid: a00504f113e0c614e9b41c25c8f858cb, type: 3}
      propertyPath: m_Name
      value: PickableBaseProjectile 1
      objectReference: {fileID: 0}
    m_RemovedComponents: []
  m_SourcePrefab: {fileID: 100100000, guid: a00504f113e0c614e9b41c25c8f858cb, type: 3}
