%YAML 1.1
%TAG !u! tag:unity3d.com,2011:
--- !u!1001 &7558271123744454709
PrefabInstance:
  m_ObjectHideFlags: 0
  serializedVersion: 2
  m_Modification:
    m_TransformParent: {fileID: 0}
    m_Modifications:
    - target: {fileID: 1367154697140267222, guid: a8898232fe201664bab3278d45a43c5e, type: 3}
      propertyPath: m_Name
      value: PickableBaseHealth
      objectReference: {fileID: 0}
    - target: {fileID: 6646376741835219127, guid: a8898232fe201664bab3278d45a43c5e, type: 3}
      propertyPath: m_RootOrder
      value: 0
      objectReference: {fileID: 0}
    - target: {fileID: 6646376741835219127, guid: a8898232fe201664bab3278d45a43c5e, type: 3}
      propertyPath: m_LocalPosition.x
      value: 0
      objectReference: {fileID: 0}
    - target: {fileID: 6646376741835219127, guid: a8898232fe201664bab3278d45a43c5e, type: 3}
      propertyPath: m_LocalPosition.y
      value: 0
      objectReference: {fileID: 0}
    - target: {fileID: 6646376741835219127, guid: a8898232fe201664bab3278d45a43c5e, type: 3}
      propertyPath: m_LocalPosition.z
      value: 0
      objectReference: {fileID: 0}
    - target: {fileID: 6646376741835219127, guid: a8898232fe201664bab3278d45a43c5e, type: 3}
      propertyPath: m_LocalRotation.w
      value: 1
      objectReference: {fileID: 0}
    - target: {fileID: 6646376741835219127, guid: a8898232fe201664bab3278d45a43c5e, type: 3}
      propertyPath: m_LocalRotation.x
      value: 0
      objectReference: {fileID: 0}
    - target: {fileID: 6646376741835219127, guid: a8898232fe201664bab3278d45a43c5e, type: 3}
      propertyPath: m_LocalRotation.y
      value: 0
      objectReference: {fileID: 0}
    - target: {fileID: 6646376741835219127, guid: a8898232fe201664bab3278d45a43c5e, type: 3}
      propertyPath: m_LocalRotation.z
      value: 0
      objectReference: {fileID: 0}
    - target: {fileID: 6646376741835219127, guid: a8898232fe201664bab3278d45a43c5e, type: 3}
      propertyPath: m_LocalEulerAnglesHint.x
      value: 0
      objectReference: {fileID: 0}
    - target: {fileID: 6646376741835219127, guid: a8898232fe201664bab3278d45a43c5e, type: 3}
      propertyPath: m_LocalEulerAnglesHint.y
      value: 0
      objectReference: {fileID: 0}
    - target: {fileID: 6646376741835219127, guid: a8898232fe201664bab3278d45a43c5e, type: 3}
      propertyPath: m_LocalEulerAnglesHint.z
      value: 0
      objectReference: {fileID: 0}
    m_RemovedComponents:
    - {fileID: 2458879049069171774, guid: a8898232fe201664bab3278d45a43c5e, type: 3}
  m_SourcePrefab: {fileID: 100100000, guid: a8898232fe201664bab3278d45a43c5e, type: 3}
