%YAML 1.1
%TAG !u! tag:unity3d.com,2011:
--- !u!1001 &7827884697522997180
PrefabInstance:
  m_ObjectHideFlags: 0
  serializedVersion: 2
  m_Modification:
    m_TransformParent: {fileID: 0}
    m_Modifications:
    - target: {fileID: 132446292789453373, guid: aa46ca111f3a1cb40b5f266a79ce9bec, type: 3}
      propertyPath: m_Name
      value: PropCollumLower
      objectReference: {fileID: 0}
    - target: {fileID: 253983977471303871, guid: aa46ca111f3a1cb40b5f266a79ce9bec, type: 3}
      propertyPath: m_RootOrder
      value: 0
      objectReference: {fileID: 0}
    - target: {fileID: 253983977471303871, guid: aa46ca111f3a1cb40b5f266a79ce9bec, type: 3}
      propertyPath: m_LocalPosition.x
      value: -49.814068
      objectReference: {fileID: 0}
    - target: {fileID: 253983977471303871, guid: aa46ca111f3a1cb40b5f266a79ce9bec, type: 3}
      propertyPath: m_LocalPosition.y
      value: -76.700935
      objectReference: {fileID: 0}
    - target: {fileID: 253983977471303871, guid: aa46ca111f3a1cb40b5f266a79ce9bec, type: 3}
      propertyPath: m_LocalPosition.z
      value: 0
      objectReference: {fileID: 0}
    - target: {fileID: 253983977471303871, guid: aa46ca111f3a1cb40b5f266a79ce9bec, type: 3}
      propertyPath: m_LocalRotation.w
      value: 1
      objectReference: {fileID: 0}
    - target: {fileID: 253983977471303871, guid: aa46ca111f3a1cb40b5f266a79ce9bec, type: 3}
      propertyPath: m_LocalRotation.x
      value: 0
      objectReference: {fileID: 0}
    - target: {fileID: 253983977471303871, guid: aa46ca111f3a1cb40b5f266a79ce9bec, type: 3}
      propertyPath: m_LocalRotation.y
      value: 0
      objectReference: {fileID: 0}
    - target: {fileID: 253983977471303871, guid: aa46ca111f3a1cb40b5f266a79ce9bec, type: 3}
      propertyPath: m_LocalRotation.z
      value: 0
      objectReference: {fileID: 0}
    - target: {fileID: 253983977471303871, guid: aa46ca111f3a1cb40b5f266a79ce9bec, type: 3}
      propertyPath: m_LocalEulerAnglesHint.x
      value: 0
      objectReference: {fileID: 0}
    - target: {fileID: 253983977471303871, guid: aa46ca111f3a1cb40b5f266a79ce9bec, type: 3}
      propertyPath: m_LocalEulerAnglesHint.y
      value: 0
      objectReference: {fileID: 0}
    - target: {fileID: 253983977471303871, guid: aa46ca111f3a1cb40b5f266a79ce9bec, type: 3}
      propertyPath: m_LocalEulerAnglesHint.z
      value: 0
      objectReference: {fileID: 0}
    - target: {fileID: 5041135231783343996, guid: aa46ca111f3a1cb40b5f266a79ce9bec, type: 3}
      propertyPath: type
      value: 3
      objectReference: {fileID: 0}
    - target: {fileID: 5110427677985667471, guid: aa46ca111f3a1cb40b5f266a79ce9bec, type: 3}
      propertyPath: m_Sprite
      value: 
      objectReference: {fileID: 21300000, guid: 25c0569fec97f6f4797cf46e1874aae5, type: 3}
    - target: {fileID: 5547947545990379639, guid: aa46ca111f3a1cb40b5f266a79ce9bec, type: 3}
      propertyPath: m_SpriteTilingProperty.oldSize.x
      value: 1.095
      objectReference: {fileID: 0}
    - target: {fileID: 5547947545990379639, guid: aa46ca111f3a1cb40b5f266a79ce9bec, type: 3}
      propertyPath: m_SpriteTilingProperty.oldSize.y
      value: 1.135
      objectReference: {fileID: 0}
    m_RemovedComponents: []
  m_SourcePrefab: {fileID: 100100000, guid: aa46ca111f3a1cb40b5f266a79ce9bec, type: 3}
