%YAML 1.1
%TAG !u! tag:unity3d.com,2011:
--- !u!29 &1
OcclusionCullingSettings:
  m_ObjectHideFlags: 0
  serializedVersion: 2
  m_OcclusionBakeSettings:
    smallestOccluder: 5
    smallestHole: 0.25
    backfaceThreshold: 100
  m_SceneGUID: 00000000000000000000000000000000
  m_OcclusionCullingData: {fileID: 0}
--- !u!104 &2
RenderSettings:
  m_ObjectHideFlags: 0
  serializedVersion: 9
  m_Fog: 0
  m_FogColor: {r: 0.5, g: 0.5, b: 0.5, a: 1}
  m_FogMode: 3
  m_FogDensity: 0.01
  m_LinearFogStart: 0
  m_LinearFogEnd: 300
  m_AmbientSkyColor: {r: 0.212, g: 0.227, b: 0.259, a: 1}
  m_AmbientEquatorColor: {r: 0.114, g: 0.125, b: 0.133, a: 1}
  m_AmbientGroundColor: {r: 0.047, g: 0.043, b: 0.035, a: 1}
  m_AmbientIntensity: 1
  m_AmbientMode: 3
  m_SubtractiveShadowColor: {r: 0.42, g: 0.478, b: 0.627, a: 1}
  m_SkyboxMaterial: {fileID: 0}
  m_HaloStrength: 0.5
  m_FlareStrength: 1
  m_FlareFadeSpeed: 3
  m_HaloTexture: {fileID: 0}
  m_SpotCookie: {fileID: 10001, guid: 0000000000000000e000000000000000, type: 0}
  m_DefaultReflectionMode: 0
  m_DefaultReflectionResolution: 128
  m_ReflectionBounces: 1
  m_ReflectionIntensity: 1
  m_CustomReflection: {fileID: 0}
  m_Sun: {fileID: 0}
  m_IndirectSpecularColor: {r: 0, g: 0, b: 0, a: 1}
  m_UseRadianceAmbientProbe: 0
--- !u!157 &3
LightmapSettings:
  m_ObjectHideFlags: 0
  serializedVersion: 12
  m_GIWorkflowMode: 1
  m_GISettings:
    serializedVersion: 2
    m_BounceScale: 1
    m_IndirectOutputScale: 1
    m_AlbedoBoost: 1
    m_EnvironmentLightingMode: 0
    m_EnableBakedLightmaps: 0
    m_EnableRealtimeLightmaps: 0
  m_LightmapEditorSettings:
    serializedVersion: 12
    m_Resolution: 2
    m_BakeResolution: 40
    m_AtlasSize: 1024
    m_AO: 0
    m_AOMaxDistance: 1
    m_CompAOExponent: 1
    m_CompAOExponentDirect: 0
    m_ExtractAmbientOcclusion: 0
    m_Padding: 2
    m_LightmapParameters: {fileID: 0}
    m_LightmapsBakeMode: 1
    m_TextureCompression: 1
    m_FinalGather: 0
    m_FinalGatherFiltering: 1
    m_FinalGatherRayCount: 256
    m_ReflectionCompression: 2
    m_MixedBakeMode: 2
    m_BakeBackend: 1
    m_PVRSampling: 1
    m_PVRDirectSampleCount: 32
    m_PVRSampleCount: 512
    m_PVRBounces: 2
    m_PVREnvironmentSampleCount: 256
    m_PVREnvironmentReferencePointCount: 2048
    m_PVRFilteringMode: 1
    m_PVRDenoiserTypeDirect: 1
    m_PVRDenoiserTypeIndirect: 1
    m_PVRDenoiserTypeAO: 1
    m_PVRFilterTypeDirect: 0
    m_PVRFilterTypeIndirect: 0
    m_PVRFilterTypeAO: 0
    m_PVREnvironmentMIS: 1
    m_PVRCulling: 1
    m_PVRFilteringGaussRadiusDirect: 1
    m_PVRFilteringGaussRadiusIndirect: 5
    m_PVRFilteringGaussRadiusAO: 2
    m_PVRFilteringAtrousPositionSigmaDirect: 0.5
    m_PVRFilteringAtrousPositionSigmaIndirect: 2
    m_PVRFilteringAtrousPositionSigmaAO: 1
    m_ExportTrainingData: 0
    m_TrainingDataDestination: TrainingData
    m_LightProbeSampleCountMultiplier: 4
  m_LightingDataAsset: {fileID: 0}
  m_LightingSettings: {fileID: 0}
--- !u!196 &4
NavMeshSettings:
  serializedVersion: 2
  m_ObjectHideFlags: 0
  m_BuildSettings:
    serializedVersion: 2
    agentTypeID: 0
    agentRadius: 0.5
    agentHeight: 2
    agentSlope: 45
    agentClimb: 0.4
    ledgeDropHeight: 0
    maxJumpAcrossDistance: 0
    minRegionArea: 2
    manualCellSize: 0
    cellSize: 0.16666667
    manualTileSize: 0
    tileSize: 256
    accuratePlacement: 0
    maxJobWorkers: 0
    preserveTilesOutsideBounds: 0
    debug:
      m_Flags: 0
  m_NavMeshData: {fileID: 0}
--- !u!1001 &164466864
PrefabInstance:
  m_ObjectHideFlags: 0
  serializedVersion: 2
  m_Modification:
    m_TransformParent: {fileID: 0}
    m_Modifications:
    - target: {fileID: 6207118980991283438, guid: 4eb8f5592d8e2054f96e922b82aef966, type: 3}
      propertyPath: m_Name
      value: PickableFactory
      objectReference: {fileID: 0}
    - target: {fileID: 7706956317621933650, guid: 4eb8f5592d8e2054f96e922b82aef966, type: 3}
      propertyPath: m_RootOrder
      value: 7
      objectReference: {fileID: 0}
    - target: {fileID: 7706956317621933650, guid: 4eb8f5592d8e2054f96e922b82aef966, type: 3}
      propertyPath: m_LocalPosition.x
      value: 0
      objectReference: {fileID: 0}
    - target: {fileID: 7706956317621933650, guid: 4eb8f5592d8e2054f96e922b82aef966, type: 3}
      propertyPath: m_LocalPosition.y
      value: 0
      objectReference: {fileID: 0}
    - target: {fileID: 7706956317621933650, guid: 4eb8f5592d8e2054f96e922b82aef966, type: 3}
      propertyPath: m_LocalPosition.z
      value: 0
      objectReference: {fileID: 0}
    - target: {fileID: 7706956317621933650, guid: 4eb8f5592d8e2054f96e922b82aef966, type: 3}
      propertyPath: m_LocalRotation.w
      value: 1
      objectReference: {fileID: 0}
    - target: {fileID: 7706956317621933650, guid: 4eb8f5592d8e2054f96e922b82aef966, type: 3}
      propertyPath: m_LocalRotation.x
      value: 0
      objectReference: {fileID: 0}
    - target: {fileID: 7706956317621933650, guid: 4eb8f5592d8e2054f96e922b82aef966, type: 3}
      propertyPath: m_LocalRotation.y
      value: 0
      objectReference: {fileID: 0}
    - target: {fileID: 7706956317621933650, guid: 4eb8f5592d8e2054f96e922b82aef966, type: 3}
      propertyPath: m_LocalRotation.z
      value: 0
      objectReference: {fileID: 0}
    - target: {fileID: 7706956317621933650, guid: 4eb8f5592d8e2054f96e922b82aef966, type: 3}
      propertyPath: m_LocalEulerAnglesHint.x
      value: 0
      objectReference: {fileID: 0}
    - target: {fileID: 7706956317621933650, guid: 4eb8f5592d8e2054f96e922b82aef966, type: 3}
      propertyPath: m_LocalEulerAnglesHint.y
      value: 0
      objectReference: {fileID: 0}
    - target: {fileID: 7706956317621933650, guid: 4eb8f5592d8e2054f96e922b82aef966, type: 3}
      propertyPath: m_LocalEulerAnglesHint.z
      value: 0
      objectReference: {fileID: 0}
    m_RemovedComponents: []
  m_SourcePrefab: {fileID: 100100000, guid: 4eb8f5592d8e2054f96e922b82aef966, type: 3}
--- !u!1001 &260887929
PrefabInstance:
  m_ObjectHideFlags: 0
  serializedVersion: 2
  m_Modification:
    m_TransformParent: {fileID: 0}
    m_Modifications:
    - target: {fileID: 5715057875338566390, guid: 7ee2da328a9e2744a9f9f7a4add93c47, type: 3}
      propertyPath: m_Name
      value: GlobalStorage
      objectReference: {fileID: 0}
    - target: {fileID: 5715057875338566391, guid: 7ee2da328a9e2744a9f9f7a4add93c47, type: 3}
      propertyPath: m_RootOrder
      value: 6
      objectReference: {fileID: 0}
    - target: {fileID: 5715057875338566391, guid: 7ee2da328a9e2744a9f9f7a4add93c47, type: 3}
      propertyPath: m_LocalPosition.x
      value: -0.22430934
      objectReference: {fileID: 0}
    - target: {fileID: 5715057875338566391, guid: 7ee2da328a9e2744a9f9f7a4add93c47, type: 3}
      propertyPath: m_LocalPosition.y
      value: -12.008347
      objectReference: {fileID: 0}
    - target: {fileID: 5715057875338566391, guid: 7ee2da328a9e2744a9f9f7a4add93c47, type: 3}
      propertyPath: m_LocalPosition.z
      value: -0.84147793
      objectReference: {fileID: 0}
    - target: {fileID: 5715057875338566391, guid: 7ee2da328a9e2744a9f9f7a4add93c47, type: 3}
      propertyPath: m_LocalRotation.w
      value: 1
      objectReference: {fileID: 0}
    - target: {fileID: 5715057875338566391, guid: 7ee2da328a9e2744a9f9f7a4add93c47, type: 3}
      propertyPath: m_LocalRotation.x
      value: 0
      objectReference: {fileID: 0}
    - target: {fileID: 5715057875338566391, guid: 7ee2da328a9e2744a9f9f7a4add93c47, type: 3}
      propertyPath: m_LocalRotation.y
      value: 0
      objectReference: {fileID: 0}
    - target: {fileID: 5715057875338566391, guid: 7ee2da328a9e2744a9f9f7a4add93c47, type: 3}
      propertyPath: m_LocalRotation.z
      value: 0
      objectReference: {fileID: 0}
    - target: {fileID: 5715057875338566391, guid: 7ee2da328a9e2744a9f9f7a4add93c47, type: 3}
      propertyPath: m_LocalEulerAnglesHint.x
      value: 0
      objectReference: {fileID: 0}
    - target: {fileID: 5715057875338566391, guid: 7ee2da328a9e2744a9f9f7a4add93c47, type: 3}
      propertyPath: m_LocalEulerAnglesHint.y
      value: 0
      objectReference: {fileID: 0}
    - target: {fileID: 5715057875338566391, guid: 7ee2da328a9e2744a9f9f7a4add93c47, type: 3}
      propertyPath: m_LocalEulerAnglesHint.z
      value: 0
      objectReference: {fileID: 0}
    m_RemovedComponents: []
  m_SourcePrefab: {fileID: 100100000, guid: 7ee2da328a9e2744a9f9f7a4add93c47, type: 3}
--- !u!1001 &315027412
PrefabInstance:
  m_ObjectHideFlags: 0
  serializedVersion: 2
  m_Modification:
    m_TransformParent: {fileID: 0}
    m_Modifications:
    - target: {fileID: 8823181159597476912, guid: 39621fa9d73f94c409c83434990276e3, type: 3}
      propertyPath: m_Name
      value: Floor
      objectReference: {fileID: 0}
    - target: {fileID: 8823181159597476917, guid: 39621fa9d73f94c409c83434990276e3, type: 3}
      propertyPath: m_RootOrder
      value: 3
      objectReference: {fileID: 0}
    - target: {fileID: 8823181159597476917, guid: 39621fa9d73f94c409c83434990276e3, type: 3}
      propertyPath: m_LocalPosition.x
      value: 18.346302
      objectReference: {fileID: 0}
    - target: {fileID: 8823181159597476917, guid: 39621fa9d73f94c409c83434990276e3, type: 3}
      propertyPath: m_LocalPosition.y
      value: -9.084909
      objectReference: {fileID: 0}
    - target: {fileID: 8823181159597476917, guid: 39621fa9d73f94c409c83434990276e3, type: 3}
      propertyPath: m_LocalPosition.z
      value: 0
      objectReference: {fileID: 0}
    - target: {fileID: 8823181159597476917, guid: 39621fa9d73f94c409c83434990276e3, type: 3}
      propertyPath: m_LocalRotation.w
      value: 1
      objectReference: {fileID: 0}
    - target: {fileID: 8823181159597476917, guid: 39621fa9d73f94c409c83434990276e3, type: 3}
      propertyPath: m_LocalRotation.x
      value: 0
      objectReference: {fileID: 0}
    - target: {fileID: 8823181159597476917, guid: 39621fa9d73f94c409c83434990276e3, type: 3}
      propertyPath: m_LocalRotation.y
      value: 0
      objectReference: {fileID: 0}
    - target: {fileID: 8823181159597476917, guid: 39621fa9d73f94c409c83434990276e3, type: 3}
      propertyPath: m_LocalRotation.z
      value: 0
      objectReference: {fileID: 0}
    - target: {fileID: 8823181159597476917, guid: 39621fa9d73f94c409c83434990276e3, type: 3}
      propertyPath: m_LocalEulerAnglesHint.x
      value: 0
      objectReference: {fileID: 0}
    - target: {fileID: 8823181159597476917, guid: 39621fa9d73f94c409c83434990276e3, type: 3}
      propertyPath: m_LocalEulerAnglesHint.y
      value: 0
      objectReference: {fileID: 0}
    - target: {fileID: 8823181159597476917, guid: 39621fa9d73f94c409c83434990276e3, type: 3}
      propertyPath: m_LocalEulerAnglesHint.z
      value: 0
      objectReference: {fileID: 0}
    m_RemovedComponents: []
  m_SourcePrefab: {fileID: 100100000, guid: 39621fa9d73f94c409c83434990276e3, type: 3}
--- !u!1001 &598990082
PrefabInstance:
  m_ObjectHideFlags: 0
  serializedVersion: 2
  m_Modification:
    m_TransformParent: {fileID: 0}
    m_Modifications:
    - target: {fileID: 5793612159335700176, guid: 0bde9b07651faa14d927d623a6d545a2, type: 3}
      propertyPath: m_RootOrder
      value: 8
      objectReference: {fileID: 0}
    - target: {fileID: 5793612159335700176, guid: 0bde9b07651faa14d927d623a6d545a2, type: 3}
      propertyPath: m_LocalPosition.x
      value: 739.8698
      objectReference: {fileID: 0}
    - target: {fileID: 5793612159335700176, guid: 0bde9b07651faa14d927d623a6d545a2, type: 3}
      propertyPath: m_LocalPosition.y
      value: 518.4621
      objectReference: {fileID: 0}
    - target: {fileID: 5793612159335700176, guid: 0bde9b07651faa14d927d623a6d545a2, type: 3}
      propertyPath: m_LocalPosition.z
      value: -6.790576
      objectReference: {fileID: 0}
    - target: {fileID: 5793612159335700176, guid: 0bde9b07651faa14d927d623a6d545a2, type: 3}
      propertyPath: m_LocalRotation.w
      value: 1
      objectReference: {fileID: 0}
    - target: {fileID: 5793612159335700176, guid: 0bde9b07651faa14d927d623a6d545a2, type: 3}
      propertyPath: m_LocalRotation.x
      value: 0
      objectReference: {fileID: 0}
    - target: {fileID: 5793612159335700176, guid: 0bde9b07651faa14d927d623a6d545a2, type: 3}
      propertyPath: m_LocalRotation.y
      value: 0
      objectReference: {fileID: 0}
    - target: {fileID: 5793612159335700176, guid: 0bde9b07651faa14d927d623a6d545a2, type: 3}
      propertyPath: m_LocalRotation.z
      value: 0
      objectReference: {fileID: 0}
    - target: {fileID: 5793612159335700176, guid: 0bde9b07651faa14d927d623a6d545a2, type: 3}
      propertyPath: m_LocalEulerAnglesHint.x
      value: 0
      objectReference: {fileID: 0}
    - target: {fileID: 5793612159335700176, guid: 0bde9b07651faa14d927d623a6d545a2, type: 3}
      propertyPath: m_LocalEulerAnglesHint.y
      value: 0
      objectReference: {fileID: 0}
    - target: {fileID: 5793612159335700176, guid: 0bde9b07651faa14d927d623a6d545a2, type: 3}
      propertyPath: m_LocalEulerAnglesHint.z
      value: 0
      objectReference: {fileID: 0}
    - target: {fileID: 5793612159335700178, guid: 0bde9b07651faa14d927d623a6d545a2, type: 3}
      propertyPath: m_Name
      value: DialogUI
      objectReference: {fileID: 0}
    - target: {fileID: 5793612159335700179, guid: 0bde9b07651faa14d927d623a6d545a2, type: 3}
      propertyPath: library
      value: 
      objectReference: {fileID: 11400000, guid: 84071c1a812212944b14284801a4e97c, type: 2}
    - target: {fileID: 5793612159841964215, guid: 0bde9b07651faa14d927d623a6d545a2, type: 3}
      propertyPath: m_Camera
      value: 
      objectReference: {fileID: 2099398100}
    m_RemovedComponents: []
  m_SourcePrefab: {fileID: 100100000, guid: 0bde9b07651faa14d927d623a6d545a2, type: 3}
--- !u!1001 &691468685
PrefabInstance:
  m_ObjectHideFlags: 0
  serializedVersion: 2
  m_Modification:
    m_TransformParent: {fileID: 0}
    m_Modifications:
    - target: {fileID: 7545712275438111001, guid: eccb2a0601b3f454e9d2b0a8c5c839df, type: 3}
      propertyPath: m_Name
      value: Character
      objectReference: {fileID: 0}
    - target: {fileID: 7545712275438111004, guid: eccb2a0601b3f454e9d2b0a8c5c839df, type: 3}
      propertyPath: m_RootOrder
      value: 9
      objectReference: {fileID: 0}
    - target: {fileID: 7545712275438111004, guid: eccb2a0601b3f454e9d2b0a8c5c839df, type: 3}
      propertyPath: m_LocalPosition.x
      value: 25
      objectReference: {fileID: 0}
    - target: {fileID: 7545712275438111004, guid: eccb2a0601b3f454e9d2b0a8c5c839df, type: 3}
      propertyPath: m_LocalPosition.y
      value: -6.5747104
      objectReference: {fileID: 0}
    - target: {fileID: 7545712275438111004, guid: eccb2a0601b3f454e9d2b0a8c5c839df, type: 3}
      propertyPath: m_LocalPosition.z
      value: 0
      objectReference: {fileID: 0}
    - target: {fileID: 7545712275438111004, guid: eccb2a0601b3f454e9d2b0a8c5c839df, type: 3}
      propertyPath: m_LocalRotation.w
      value: 1
      objectReference: {fileID: 0}
    - target: {fileID: 7545712275438111004, guid: eccb2a0601b3f454e9d2b0a8c5c839df, type: 3}
      propertyPath: m_LocalRotation.x
      value: 0
      objectReference: {fileID: 0}
    - target: {fileID: 7545712275438111004, guid: eccb2a0601b3f454e9d2b0a8c5c839df, type: 3}
      propertyPath: m_LocalRotation.y
      value: 0
      objectReference: {fileID: 0}
    - target: {fileID: 7545712275438111004, guid: eccb2a0601b3f454e9d2b0a8c5c839df, type: 3}
      propertyPath: m_LocalRotation.z
      value: 0
      objectReference: {fileID: 0}
    - target: {fileID: 7545712275438111004, guid: eccb2a0601b3f454e9d2b0a8c5c839df, type: 3}
      propertyPath: m_LocalEulerAnglesHint.x
      value: 0
      objectReference: {fileID: 0}
    - target: {fileID: 7545712275438111004, guid: eccb2a0601b3f454e9d2b0a8c5c839df, type: 3}
      propertyPath: m_LocalEulerAnglesHint.y
      value: 0
      objectReference: {fileID: 0}
    - target: {fileID: 7545712275438111004, guid: eccb2a0601b3f454e9d2b0a8c5c839df, type: 3}
      propertyPath: m_LocalEulerAnglesHint.z
      value: 0
      objectReference: {fileID: 0}
    m_RemovedComponents: []
  m_SourcePrefab: {fileID: 100100000, guid: eccb2a0601b3f454e9d2b0a8c5c839df, type: 3}
--- !u!1001 &1103887743
PrefabInstance:
  m_ObjectHideFlags: 0
  serializedVersion: 2
  m_Modification:
    m_TransformParent: {fileID: 0}
    m_Modifications:
    - target: {fileID: 5631133376057029672, guid: fcc7d6c217347ea4aa5fcce8f69b40df, type: 3}
      propertyPath: m_Name
      value: Skull
      objectReference: {fileID: 0}
    - target: {fileID: 9164658542716993343, guid: fcc7d6c217347ea4aa5fcce8f69b40df, type: 3}
      propertyPath: m_RootOrder
      value: 1
      objectReference: {fileID: 0}
    - target: {fileID: 9164658542716993343, guid: fcc7d6c217347ea4aa5fcce8f69b40df, type: 3}
      propertyPath: m_LocalPosition.x
      value: 31.1087
      objectReference: {fileID: 0}
    - target: {fileID: 9164658542716993343, guid: fcc7d6c217347ea4aa5fcce8f69b40df, type: 3}
      propertyPath: m_LocalPosition.y
      value: -7.7752676
      objectReference: {fileID: 0}
    - target: {fileID: 9164658542716993343, guid: fcc7d6c217347ea4aa5fcce8f69b40df, type: 3}
      propertyPath: m_LocalPosition.z
      value: -11.004263
      objectReference: {fileID: 0}
    - target: {fileID: 9164658542716993343, guid: fcc7d6c217347ea4aa5fcce8f69b40df, type: 3}
      propertyPath: m_LocalRotation.w
      value: 1
      objectReference: {fileID: 0}
    - target: {fileID: 9164658542716993343, guid: fcc7d6c217347ea4aa5fcce8f69b40df, type: 3}
      propertyPath: m_LocalRotation.x
      value: 0
      objectReference: {fileID: 0}
    - target: {fileID: 9164658542716993343, guid: fcc7d6c217347ea4aa5fcce8f69b40df, type: 3}
      propertyPath: m_LocalRotation.y
      value: 0
      objectReference: {fileID: 0}
    - target: {fileID: 9164658542716993343, guid: fcc7d6c217347ea4aa5fcce8f69b40df, type: 3}
      propertyPath: m_LocalRotation.z
      value: 0
      objectReference: {fileID: 0}
    - target: {fileID: 9164658542716993343, guid: fcc7d6c217347ea4aa5fcce8f69b40df, type: 3}
      propertyPath: m_LocalEulerAnglesHint.x
      value: 0
      objectReference: {fileID: 0}
    - target: {fileID: 9164658542716993343, guid: fcc7d6c217347ea4aa5fcce8f69b40df, type: 3}
      propertyPath: m_LocalEulerAnglesHint.y
      value: 0
      objectReference: {fileID: 0}
    - target: {fileID: 9164658542716993343, guid: fcc7d6c217347ea4aa5fcce8f69b40df, type: 3}
      propertyPath: m_LocalEulerAnglesHint.z
      value: 0
      objectReference: {fileID: 0}
    m_RemovedComponents: []
  m_SourcePrefab: {fileID: 100100000, guid: fcc7d6c217347ea4aa5fcce8f69b40df, type: 3}
--- !u!1001 &1539885709
PrefabInstance:
  m_ObjectHideFlags: 0
  serializedVersion: 2
  m_Modification:
    m_TransformParent: {fileID: 0}
    m_Modifications:
    - target: {fileID: 6766031264063584028, guid: fc88606e3e35a994b9e6fdaf0dfb644b, type: 3}
      propertyPath: m_RootOrder
      value: 5
      objectReference: {fileID: 0}
    - target: {fileID: 6766031264063584028, guid: fc88606e3e35a994b9e6fdaf0dfb644b, type: 3}
      propertyPath: m_LocalPosition.x
      value: 0
      objectReference: {fileID: 0}
    - target: {fileID: 6766031264063584028, guid: fc88606e3e35a994b9e6fdaf0dfb644b, type: 3}
      propertyPath: m_LocalPosition.y
      value: 0
      objectReference: {fileID: 0}
    - target: {fileID: 6766031264063584028, guid: fc88606e3e35a994b9e6fdaf0dfb644b, type: 3}
      propertyPath: m_LocalPosition.z
      value: 0
      objectReference: {fileID: 0}
    - target: {fileID: 6766031264063584028, guid: fc88606e3e35a994b9e6fdaf0dfb644b, type: 3}
      propertyPath: m_LocalRotation.w
      value: 1
      objectReference: {fileID: 0}
    - target: {fileID: 6766031264063584028, guid: fc88606e3e35a994b9e6fdaf0dfb644b, type: 3}
      propertyPath: m_LocalRotation.x
      value: 0
      objectReference: {fileID: 0}
    - target: {fileID: 6766031264063584028, guid: fc88606e3e35a994b9e6fdaf0dfb644b, type: 3}
      propertyPath: m_LocalRotation.y
      value: 0
      objectReference: {fileID: 0}
    - target: {fileID: 6766031264063584028, guid: fc88606e3e35a994b9e6fdaf0dfb644b, type: 3}
      propertyPath: m_LocalRotation.z
      value: 0
      objectReference: {fileID: 0}
    - target: {fileID: 6766031264063584028, guid: fc88606e3e35a994b9e6fdaf0dfb644b, type: 3}
      propertyPath: m_LocalEulerAnglesHint.x
      value: 0
      objectReference: {fileID: 0}
    - target: {fileID: 6766031264063584028, guid: fc88606e3e35a994b9e6fdaf0dfb644b, type: 3}
      propertyPath: m_LocalEulerAnglesHint.y
      value: 0
      objectReference: {fileID: 0}
    - target: {fileID: 6766031264063584028, guid: fc88606e3e35a994b9e6fdaf0dfb644b, type: 3}
      propertyPath: m_LocalEulerAnglesHint.z
      value: 0
      objectReference: {fileID: 0}
    - target: {fileID: 8584675665844998081, guid: fc88606e3e35a994b9e6fdaf0dfb644b, type: 3}
      propertyPath: m_IsActive
      value: 0
      objectReference: {fileID: 0}
    - target: {fileID: 8931971671070956112, guid: fc88606e3e35a994b9e6fdaf0dfb644b, type: 3}
      propertyPath: m_Name
      value: GameMenu
      objectReference: {fileID: 0}
    m_RemovedComponents: []
  m_SourcePrefab: {fileID: 100100000, guid: fc88606e3e35a994b9e6fdaf0dfb644b, type: 3}
--- !u!1001 &1610853357
PrefabInstance:
  m_ObjectHideFlags: 0
  serializedVersion: 2
  m_Modification:
    m_TransformParent: {fileID: 0}
    m_Modifications:
    - target: {fileID: 4790829005003251432, guid: f8ebabc5cc20e2b49979bd3b36180846, type: 3}
      propertyPath: m_RootOrder
      value: 2
      objectReference: {fileID: 0}
    - target: {fileID: 4790829005003251432, guid: f8ebabc5cc20e2b49979bd3b36180846, type: 3}
      propertyPath: m_LocalPosition.x
      value: 0
      objectReference: {fileID: 0}
    - target: {fileID: 4790829005003251432, guid: f8ebabc5cc20e2b49979bd3b36180846, type: 3}
      propertyPath: m_LocalPosition.y
      value: 0
      objectReference: {fileID: 0}
    - target: {fileID: 4790829005003251432, guid: f8ebabc5cc20e2b49979bd3b36180846, type: 3}
      propertyPath: m_LocalPosition.z
      value: 0
      objectReference: {fileID: 0}
    - target: {fileID: 4790829005003251432, guid: f8ebabc5cc20e2b49979bd3b36180846, type: 3}
      propertyPath: m_LocalRotation.w
      value: 1
      objectReference: {fileID: 0}
    - target: {fileID: 4790829005003251432, guid: f8ebabc5cc20e2b49979bd3b36180846, type: 3}
      propertyPath: m_LocalRotation.x
      value: 0
      objectReference: {fileID: 0}
    - target: {fileID: 4790829005003251432, guid: f8ebabc5cc20e2b49979bd3b36180846, type: 3}
      propertyPath: m_LocalRotation.y
      value: 0
      objectReference: {fileID: 0}
    - target: {fileID: 4790829005003251432, guid: f8ebabc5cc20e2b49979bd3b36180846, type: 3}
      propertyPath: m_LocalRotation.z
      value: 0
      objectReference: {fileID: 0}
    - target: {fileID: 4790829005003251432, guid: f8ebabc5cc20e2b49979bd3b36180846, type: 3}
      propertyPath: m_LocalEulerAnglesHint.x
      value: 0
      objectReference: {fileID: 0}
    - target: {fileID: 4790829005003251432, guid: f8ebabc5cc20e2b49979bd3b36180846, type: 3}
      propertyPath: m_LocalEulerAnglesHint.y
      value: 0
      objectReference: {fileID: 0}
    - target: {fileID: 4790829005003251432, guid: f8ebabc5cc20e2b49979bd3b36180846, type: 3}
      propertyPath: m_LocalEulerAnglesHint.z
      value: 0
      objectReference: {fileID: 0}
    - target: {fileID: 8975921185922319508, guid: f8ebabc5cc20e2b49979bd3b36180846, type: 3}
      propertyPath: m_Name
      value: GameManager
      objectReference: {fileID: 0}
    m_RemovedComponents: []
  m_SourcePrefab: {fileID: 100100000, guid: f8ebabc5cc20e2b49979bd3b36180846, type: 3}
--- !u!1001 &2099398099
PrefabInstance:
  m_ObjectHideFlags: 0
  serializedVersion: 2
  m_Modification:
    m_TransformParent: {fileID: 0}
    m_Modifications:
    - target: {fileID: 7813192393045035278, guid: 576c997f6d42b1f4199750e6e9243ea4, type: 3}
      propertyPath: m_RootOrder
      value: 0
      objectReference: {fileID: 0}
    - target: {fileID: 7813192393045035278, guid: 576c997f6d42b1f4199750e6e9243ea4, type: 3}
      propertyPath: m_LocalPosition.x
      value: 31.29
      objectReference: {fileID: 0}
    - target: {fileID: 7813192393045035278, guid: 576c997f6d42b1f4199750e6e9243ea4, type: 3}
      propertyPath: m_LocalPosition.y
      value: -5.01
      objectReference: {fileID: 0}
    - target: {fileID: 7813192393045035278, guid: 576c997f6d42b1f4199750e6e9243ea4, type: 3}
      propertyPath: m_LocalPosition.z
      value: -20
      objectReference: {fileID: 0}
    - target: {fileID: 7813192393045035278, guid: 576c997f6d42b1f4199750e6e9243ea4, type: 3}
      propertyPath: m_LocalRotation.w
      value: 1
      objectReference: {fileID: 0}
    - target: {fileID: 7813192393045035278, guid: 576c997f6d42b1f4199750e6e9243ea4, type: 3}
      propertyPath: m_LocalRotation.x
      value: 0
      objectReference: {fileID: 0}
    - target: {fileID: 7813192393045035278, guid: 576c997f6d42b1f4199750e6e9243ea4, type: 3}
      propertyPath: m_LocalRotation.y
      value: 0
      objectReference: {fileID: 0}
    - target: {fileID: 7813192393045035278, guid: 576c997f6d42b1f4199750e6e9243ea4, type: 3}
      propertyPath: m_LocalRotation.z
      value: 0
      objectReference: {fileID: 0}
    - target: {fileID: 7813192393045035278, guid: 576c997f6d42b1f4199750e6e9243ea4, type: 3}
      propertyPath: m_LocalEulerAnglesHint.x
      value: 0
      objectReference: {fileID: 0}
    - target: {fileID: 7813192393045035278, guid: 576c997f6d42b1f4199750e6e9243ea4, type: 3}
      propertyPath: m_LocalEulerAnglesHint.y
      value: 0
      objectReference: {fileID: 0}
    - target: {fileID: 7813192393045035278, guid: 576c997f6d42b1f4199750e6e9243ea4, type: 3}
      propertyPath: m_LocalEulerAnglesHint.z
      value: 0
      objectReference: {fileID: 0}
    - target: {fileID: 7813192393045035506, guid: 576c997f6d42b1f4199750e6e9243ea4, type: 3}
      propertyPath: m_Name
      value: Main Camera
      objectReference: {fileID: 0}
    m_RemovedComponents: []
  m_SourcePrefab: {fileID: 100100000, guid: 576c997f6d42b1f4199750e6e9243ea4, type: 3}
--- !u!20 &2099398100 stripped
Camera:
  m_CorrespondingSourceObject: {fileID: 7813192393045035505, guid: 576c997f6d42b1f4199750e6e9243ea4, type: 3}
  m_PrefabInstance: {fileID: 2099398099}
  m_PrefabAsset: {fileID: 0}
--- !u!1001 &2105706946
PrefabInstance:
  m_ObjectHideFlags: 0
  serializedVersion: 2
  m_Modification:
    m_TransformParent: {fileID: 0}
    m_Modifications:
    - target: {fileID: 1758545566859180338, guid: b44c4aaf591087b4aac850f82d6d212d, type: 3}
      propertyPath: m_Name
      value: ProjectileFactory
      objectReference: {fileID: 0}
    - target: {fileID: 5258316824530200576, guid: b44c4aaf591087b4aac850f82d6d212d, type: 3}
      propertyPath: m_RootOrder
      value: 4
      objectReference: {fileID: 0}
    - target: {fileID: 5258316824530200576, guid: b44c4aaf591087b4aac850f82d6d212d, type: 3}
      propertyPath: m_LocalPosition.x
      value: 0
      objectReference: {fileID: 0}
    - target: {fileID: 5258316824530200576, guid: b44c4aaf591087b4aac850f82d6d212d, type: 3}
      propertyPath: m_LocalPosition.y
      value: 0
      objectReference: {fileID: 0}
    - target: {fileID: 5258316824530200576, guid: b44c4aaf591087b4aac850f82d6d212d, type: 3}
      propertyPath: m_LocalPosition.z
      value: 0
      objectReference: {fileID: 0}
    - target: {fileID: 5258316824530200576, guid: b44c4aaf591087b4aac850f82d6d212d, type: 3}
      propertyPath: m_LocalRotation.w
      value: 1
      objectReference: {fileID: 0}
    - target: {fileID: 5258316824530200576, guid: b44c4aaf591087b4aac850f82d6d212d, type: 3}
      propertyPath: m_LocalRotation.x
      value: 0
      objectReference: {fileID: 0}
    - target: {fileID: 5258316824530200576, guid: b44c4aaf591087b4aac850f82d6d212d, type: 3}
      propertyPath: m_LocalRotation.y
      value: 0
      objectReference: {fileID: 0}
    - target: {fileID: 5258316824530200576, guid: b44c4aaf591087b4aac850f82d6d212d, type: 3}
      propertyPath: m_LocalRotation.z
      value: 0
      objectReference: {fileID: 0}
    - target: {fileID: 5258316824530200576, guid: b44c4aaf591087b4aac850f82d6d212d, type: 3}
      propertyPath: m_LocalEulerAnglesHint.x
      value: 0
      objectReference: {fileID: 0}
    - target: {fileID: 5258316824530200576, guid: b44c4aaf591087b4aac850f82d6d212d, type: 3}
      propertyPath: m_LocalEulerAnglesHint.y
      value: 0
      objectReference: {fileID: 0}
    - target: {fileID: 5258316824530200576, guid: b44c4aaf591087b4aac850f82d6d212d, type: 3}
      propertyPath: m_LocalEulerAnglesHint.z
      value: 0
      objectReference: {fileID: 0}
    m_RemovedComponents: []
  m_SourcePrefab: {fileID: 100100000, guid: b44c4aaf591087b4aac850f82d6d212d, type: 3}
